<?xml version="1.0" encoding="UTF-8"?>
<svg width="21px" height="2px" viewBox="0 0 21 2" version="1.1" xmlns="http://www.w3.org/2000/svg" xmlns:xlink="http://www.w3.org/1999/xlink">
    <g stroke="none" stroke-width="1" fill="none" fill-rule="evenodd">
        <rect id="Rectangle" fill="#000000" transform="translate(10.500000, 1.000000) rotate(-90.000000) translate(-10.500000, -1.000000) " x="10" y="-9" width="1" height="20"></rect>
    </g>
</svg>